…
``` r
# tidy up
rm(dat1,dat2,dat3,dat4,dat5,dat6,dat7,dat8,dat9, dat10, dat11)
rm(datg1, datg2, datg3, datg4, datg5)
```

``` r
# check for missing entries
diffs = elec_halfhr$UTC_time - shift(elec_halfhr$UTC_time)
elec_halfhr[c(which(diffs>30)-1, which(diffs>30)),] %>%
  arrange(UTC_time)
```

    ## # A tibble: 22 × 2
    ##    UTC_time            elec_import_kwh
    ##    <dttm>                        <dbl>
    ##  1 2021-11-12 07:00:00           0.044
    ##  2 2021-11-12 08:00:00           0.071
    ##  3 2022-01-10 02:30:00           0.1  
    ##  4 2022-01-10 03:30:00           0.089
    ##  5 2022-03-04 05:30:00           0.034
    ##  6 2022-03-04 06:30:00           0.039
    ##  7 2022-05-06 07:30:00           0.413
    ##  8 2022-05-06 08:30:00           0.176
    ##  9 2022-07-14 07:30:00           0.035
    ## 10 2022-07-14 08:30:00           0.274
    ## # … with 12 more rows
…
